

Report
======
90 statements analysed.

Statistics by type
------------------

+---------+-------+-----------+-----------+------------+---------+
|type     |number |old number |difference |%documented |%badname |
+=========+=======+===========+===========+============+=========+
|module   |1      |1          |=          |100.00      |0.00     |
+---------+-------+-----------+-----------+------------+---------+
|class    |0      |0          |=          |0           |0        |
+---------+-------+-----------+-----------+------------+---------+
|method   |0      |0          |=          |0           |0        |
+---------+-------+-----------+-----------+------------+---------+
|function |6      |6          |=          |100.00      |0.00     |
+---------+-------+-----------+-----------+------------+---------+



External dependencies
---------------------
::

    matplotlib 
      \-pyplot (kmeans)
    numpy (kmeans)
      \-linalg (kmeans)
    sklearn 
      \-cluster (kmeans)



Raw metrics
-----------

+----------+-------+------+---------+-----------+
|type      |number |%     |previous |difference |
+==========+=======+======+=========+===========+
|code      |94     |43.52 |94       |=          |
+----------+-------+------+---------+-----------+
|docstring |59     |27.31 |59       |=          |
+----------+-------+------+---------+-----------+
|comment   |16     |7.41  |16       |=          |
+----------+-------+------+---------+-----------+
|empty     |47     |21.76 |47       |=          |
+----------+-------+------+---------+-----------+



Duplication
-----------

+-------------------------+------+---------+-----------+
|                         |now   |previous |difference |
+=========================+======+=========+===========+
|nb duplicated lines      |0     |0        |=          |
+-------------------------+------+---------+-----------+
|percent duplicated lines |0.000 |0.000    |=          |
+-------------------------+------+---------+-----------+



Messages by category
--------------------

+-----------+-------+---------+-----------+
|type       |number |previous |difference |
+===========+=======+=========+===========+
|convention |0      |0        |=          |
+-----------+-------+---------+-----------+
|refactor   |0      |1        |-1.00      |
+-----------+-------+---------+-----------+
|warning    |0      |1        |-1.00      |
+-----------+-------+---------+-----------+
|error      |0      |0        |=          |
+-----------+-------+---------+-----------+



Global evaluation
-----------------
Your code has been rated at 10.00/10 (previous run: 9.78/10, +0.22)
Wow ! Now this deserves our uttermost respect.
Please send your code to python-projects@logilab.org

